,G,MP,FG,FGA,FG%,3P,3PA,3P%,2P,2PA,2P%,FT,FTA,FT%,ORB,DRB,TRB,AST,STL,BLK,TOV,PF,PTS
Team,35,8450,1300,2990,.435,288,850,.339,1012,2140,.473,590,791,.746,422,1131,1553,781,253,164,518,714,3478,
Team/G,,241.4,37.1,85.4,.435,8.2,24.3,.339,28.9,61.1,.473,16.9,22.6,.746,12.1,32.3,44.4,22.3,7.2,4.7,14.8,20.4,99.4,
Lg Rank,,19,17,12,24,16,13,21,17,14,22,20,19,22,4,24,12,9,23,16,20,15,19,
Year/Year,,-0.4%,-1.7%,-2.1%,+.002,2.2%,-2.0%,+.014,-2.8%,-2.2%,-.003,-5.5%,-6.9%,+.012,-2.3%,-0.1%,-0.7%,2.3%,-7.5%,4.7%,4.1%,-11.1%,-2.1%,
Opponent,35,8450,1351,2902,.466,323,835,.387,1028,2067,.497,623,834,.747,340,1164,1504,805,290,220,497,732,3648,
Opponent/G,,241.4,38.6,82.9,.466,9.2,23.9,.387,29.4,59.1,.497,17.8,23.8,.747,9.7,33.3,43.0,23.0,8.3,6.3,14.2,20.9,104.2,
Lg Rank,,19,22,12,29,23,16,29,15,12,23,18,18,12,10,14,11,22,21,29,20,21,23,
Year/Year,,-0.4%,0.0%,-1.6%,+.008,19.9%,7.3%,+.041,-4.9%,-4.8%,-.001,-11.6%,-11.5%,-.001,-11.4%,-2.5%,-4.7%,-0.4%,11.2%,2.3%,-1.1%,1.0%,-0.7%,
