,PW,PL,MOV,SOS,SRS,ORtg,DRtg,Pace,FTr,3PAr,eFG%,TOV%,ORB%,FT/FGA,eFG%,TOV%,DRB%,FT/FGA,Arena,Attendance
Team,20,15,1.83,-0.20,1.63,104.1,102.2,95.3,.284,.294,.476,12.3,28.7,.186,.495,14.1,78.2,.191,The Palace of Auburn Hills,266217,
Lg Rank,10,11,11,20,13,20,8,19,11,12,26,2,2,27,14,11,4,5,,23,
