,G,MP,FG,FGA,FG%,3P,3PA,3P%,2P,2PA,2P%,FT,FTA,FT%,ORB,DRB,TRB,AST,STL,BLK,TOV,PF,PTS
Team,35,8425,1326,2871,.462,301,848,.355,1025,2023,.507,675,973,.694,326,1157,1483,808,260,187,474,745,3628,
Team/G,,240.7,37.9,82.0,.462,8.6,24.2,.355,29.3,57.8,.507,19.3,27.8,.694,9.3,33.1,42.4,23.1,7.4,5.3,13.5,21.3,103.7,
Lg Rank,,20,11,23,5,13,14,14,12,21,5,6,2,28,24,17,23,7,21,11,6,21,9,
Year/Year,,0.0%,-3.8%,-1.5%,-.011,-14.7%,-9.8%,-.021,0.0%,2.4%,-.012,7.7%,10.3%,-.017,-2.6%,-0.0%,-0.6%,-6.8%,-4.8%,7.1%,9.7%,-0.2%,-2.9%,
Opponent,35,8425,1290,2959,.436,260,777,.335,1030,2182,.472,678,899,.754,400,1204,1604,720,270,108,520,833,3518,
Opponent/G,,240.7,36.9,84.5,.436,7.4,22.2,.335,29.4,62.3,.472,19.4,25.7,.754,11.4,34.4,45.8,20.6,7.7,3.1,14.9,23.8,100.5,
Lg Rank,,20,13,17,10,10,9,9,16,21,8,26,25,14,22,22,24,10,17,1,16,30,15,
Year/Year,,0.0%,1.3%,2.8%,-.006,-10.8%,-7.1%,-.014,4.9%,6.8%,-.009,1.8%,0.1%,+.013,8.0%,6.5%,6.9%,-11.4%,15.4%,3.3%,4.0%,10.5%,0.4%,
