,G,MP,FG,FGA,FG%,3P,3PA,3P%,2P,2PA,2P%,FT,FTA,FT%,ORB,DRB,TRB,AST,STL,BLK,TOV,PF,PTS
Team,36,8665,1266,3084,.411,286,900,.318,980,2184,.449,653,859,.760,386,1185,1571,670,267,163,510,724,3471,
Team/G,,240.7,35.2,85.7,.411,7.9,25.0,.318,27.2,60.7,.449,18.1,23.9,.760,10.7,32.9,43.6,18.6,7.4,4.5,14.2,20.1,96.4,
Lg Rank,,7,24,4,30,17,11,27,21,13,30,7,9,16,7,12,10,27,20,17,18,17,20,
Year/Year,,-1.0%,-5.6%,0.1%,-.025,22.5%,32.6%,-.026,-11.5%,-9.1%,-.012,3.8%,1.1%,+.020,-7.6%,2.0%,-0.6%,-11.0%,5.2%,1.4%,7.0%,-5.3%,-2.1%,
Opponent,36,8665,1430,3113,.459,308,896,.344,1122,2217,.506,641,864,.742,426,1295,1721,865,269,196,478,659,3809,
Opponent/G,,240.7,39.7,86.5,.459,8.6,24.9,.344,31.2,61.6,.506,17.8,24.0,.742,11.8,36.0,47.8,24.0,7.5,5.4,13.3,18.3,105.8,
Lg Rank,,7,29,29,23,18,24,12,29,22,25,21,22,8,29,30,30,28,16,23,23,5,27,
Year/Year,,-1.0%,2.4%,4.0%,-.007,0.7%,6.2%,-.019,2.9%,3.1%,-.001,-7.4%,-7.1%,-.003,17.8%,5.5%,8.3%,0.2%,0.3%,12.7%,1.9%,-5.5%,0.5%,
