,G,MP,FG,FGA,FG%,3P,3PA,3P%,2P,2PA,2P%,FT,FTA,FT%,ORB,DRB,TRB,AST,STL,BLK,TOV,PF,PTS
Team,36,8690,1281,2957,.433,195,620,.315,1086,2337,.465,700,881,.795,365,1122,1487,755,318,151,486,765,3457,
Team/G,,241.4,35.6,82.1,.433,5.4,17.2,.315,30.2,64.9,.465,19.4,24.5,.795,10.1,31.2,41.3,21.0,8.8,4.2,13.5,21.3,96.0,
Lg Rank,,6,21,16,27,28,27,29,8,3,26,5,7,2,18,26,22,16,5,21,9,24,22,
Year/Year,,-0.6%,-5.8%,-0.4%,-.025,5.0%,13.3%,-.025,-7.5%,-3.5%,-.020,10.3%,7.4%,+.021,-2.9%,-3.0%,-2.9%,-3.2%,3.5%,-0.9%,1.2%,11.2%,-2.3%,
Opponent,36,8690,1261,2804,.450,346,963,.359,915,1841,.497,681,903,.754,338,1220,1558,768,264,204,611,764,3549,
Opponent/G,,241.4,35.0,77.9,.450,9.6,26.8,.359,25.4,51.1,.497,18.9,25.1,.754,9.4,33.9,43.3,21.3,7.3,5.7,17.0,21.2,98.6,
Lg Rank,,6,7,4,17,28,29,20,3,1,22,27,26,14,9,24,17,18,11,26,1,24,17,
Year/Year,,-0.6%,-2.8%,-4.4%,+.008,18.9%,16.1%,+.008,-9.0%,-12.5%,+.019,26.6%,24.6%,+.012,-10.9%,6.2%,2.0%,5.9%,-0.4%,9.6%,10.7%,4.7%,3.7%,
