,PW,PL,MOV,SOS,SRS,ORtg,DRtg,Pace,FTr,3PAr,eFG%,TOV%,ORB%,FT/FGA,eFG%,TOV%,DRB%,FT/FGA,Arena,Attendance
Team,20,14,2.79,-0.24,2.55,104.6,101.6,92.3,.294,.255,.505,13.3,21.9,.215,.469,12.2,77.1,.180,AmericanAirlines Arena,433355,
Lg Rank,9,7,8,21,9,16,6,29,8,22,9,12,24,9,4,25,10,3,,2,
