,G,MP,FG,FGA,FG%,3P,3PA,3P%,2P,2PA,2P%,FT,FTA,FT%,ORB,DRB,TRB,AST,STL,BLK,TOV,PF,PTS
Team,35,8500,1286,2867,.449,174,536,.325,1112,2331,.477,742,934,.794,345,1145,1490,756,272,161,530,774,3488,
Team/G,,242.9,36.7,81.9,.449,5.0,15.3,.325,31.8,66.6,.477,21.2,26.7,.794,9.9,32.7,42.6,21.6,7.8,4.6,15.1,22.1,99.7,
Lg Rank,,13,18,24,10,30,30,26,5,4,20,2,4,3,21,18,21,15,16,19,22,25,17,
Year/Year,,0.6%,0.9%,-1.5%,+.011,0.4%,2.7%,-.007,1.0%,-2.4%,+.016,6.1%,3.7%,+.018,-14.8%,11.5%,4.0%,0.0%,-4.6%,15.4%,0.9%,15.4%,1.9%,
Opponent,35,8500,1346,2933,.459,305,879,.347,1041,2054,.507,605,816,.741,360,1131,1491,767,268,195,537,752,3602,
Opponent/G,,242.9,38.5,83.8,.459,8.7,25.1,.347,29.7,58.7,.507,17.3,23.3,.741,10.3,32.3,42.6,21.9,7.7,5.6,15.3,21.5,102.9,
Lg Rank,,13,21,14,22,16,20,15,19,10,26,12,15,7,14,8,9,17,15,22,10,22,21,
Year/Year,,0.6%,-6.5%,-0.9%,-.028,2.5%,8.6%,-.020,-8.9%,-4.4%,-.025,9.5%,12.2%,-.018,-11.5%,1.2%,-2.2%,-7.0%,-8.5%,1.7%,1.2%,0.6%,-3.4%,
