,G,MP,FG,FGA,FG%,3P,3PA,3P%,2P,2PA,2P%,FT,FTA,FT%,ORB,DRB,TRB,AST,STL,BLK,TOV,PF,PTS
Team,37,8880,1281,3021,.424,303,959,.316,978,2062,.474,573,832,.689,368,1181,1549,727,296,246,679,804,3438,
Team/G,,240.0,34.6,81.6,.424,8.2,25.9,.316,26.4,55.7,.474,15.5,22.5,.689,9.9,31.9,41.9,19.6,8.0,6.6,18.4,21.7,92.9,
Lg Rank,,4,21,8,29,12,7,28,22,19,21,25,10,29,17,13,13,21,11,1,30,28,23,
Year/Year,,-0.6%,2.7%,-1.2%,+.016,-3.0%,-1.6%,-.004,4.6%,-1.0%,+.025,-3.8%,-5.6%,+.013,-16.6%,3.2%,-2.3%,-4.3%,-16.9%,11.9%,3.6%,0.2%,1.0%,
Opponent,37,8880,1421,3088,.460,277,767,.361,1144,2321,.493,752,957,.786,376,1293,1669,849,325,243,558,718,3871,
Opponent/G,,240.0,38.4,83.5,.460,7.5,20.7,.361,30.9,62.7,.493,20.3,25.9,.786,10.2,34.9,45.1,22.9,8.8,6.6,15.1,19.4,104.6,
Lg Rank,,4,27,27,25,13,7,22,30,29,19,30,28,28,18,29,29,27,27,30,8,19,29,
Year/Year,,-0.6%,3.4%,0.9%,+.011,-6.7%,-9.5%,+.011,6.2%,4.8%,+.006,8.9%,4.8%,+.030,-11.4%,0.4%,-2.5%,-3.1%,-7.5%,18.6%,-10.0%,-4.0%,3.6%,
