,PW,PL,MOV,SOS,SRS,ORtg,DRtg,Pace,FTr,3PAr,eFG%,TOV%,ORB%,FT/FGA,eFG%,TOV%,DRB%,FT/FGA,Arena,Attendance
Team,21,15,2.72,0.09,2.81,107.3,104.4,93.2,.319,.287,.488,12.7,24.9,.252,.492,13.4,77.5,.210,Air Canada Centre,337663,
Lg Rank,6,10,9,14,7,4,13,27,4,17,19,6,9,3,11,19,6,17,,9,
